{
  "name": "content_browser",
  "display_name": "CEF",
  "interface_provider_specs": {
    "service_manager:connector": {
      "provides": {
        "renderer": [
          "blink::mojom::BudgetService",
          "metrics::mojom::LeakDetector",
          "mojom::ModuleEventSink"
        ]
      },
      "requires": {
        "proxy_resolver": [ "factory" ]
      }
    },
    "navigation:frame": {
      "provides": {
        "renderer": [
          "blink::mojom::BudgetService",
          "extensions::KeepAlive",
          "extensions::mime_handler::MimeHandlerService"
        ]
      }
    }
  }
}
